id;nom;adresse;couleurs;hashcode;created_at;updated_at;deleted;code;user_id
1;Health generate;Handmade United States of America;solid state monitoring;calculating primary interface;2021-01-15T20:27:04;2021-01-16T02:42:12;true;turn-key Tasty;65749
2;withdrawal quantify;Ouguiya Salad Square;Buckinghamshire Synchronised SMS;Sports Berkshire Gloves;2021-01-15T14:55:11;2021-01-15T13:53:11;true;Stravenue TCP revolutionize;33049
3;Direct tan;Intelligent;global;cross-platform invoice Auto Loan Account;2021-01-16T00:47:59;2021-01-16T04:06:38;false;Montana;64378
4;Officer;Zambia Health ROI;card;Small Plastic Chips Seychelles transmitting;2021-01-16T10:29:02;2021-01-16T01:00:09;true;technologies;96381
5;quantifying Toys;yellow Planner;Highway lime;compressing capacity;2021-01-16T07:41:05;2021-01-15T17:58:12;false;navigate;76467
6;Arkansas infomediaries Myanmar;process improvement matrix;Auto Loan Account;calculating;2021-01-16T05:12:29;2021-01-16T10:59:09;false;Future Practical Plastic Chair Operative;17024
7;Ghana Avon copy;Intranet Knoll;bypassing Sleek withdrawal;Small Fresh Sausages National Handmade Frozen Fish;2021-01-15T12:33:29;2021-01-16T03:11:15;true;seize Cambridgeshire;62961
8;lavender Trace Orchard;Avon;revolutionize Money Market Account;National Balanced;2021-01-15T15:37:26;2021-01-15T23:29:23;false;convergence;26847
9;Ohio Garden Connecticut;Ergonomic;PNG;communities;2021-01-16T10:30:17;2021-01-15T21:48:54;true;Afghanistan;3361
10;connecting;Division;Creative Web;Savings Account Mouse Towels;2021-01-15T18:02:26;2021-01-16T03:06:13;false;Hat;23916
