id;hashcode;code;libelle;max_age;created_at;updated_at;deleted
1;Table;projection Versatile;Integration;75530;2021-01-15T16:58:56;2021-01-16T10:46:42;true
2;applications Practical Rubber Chair Fresh;transmitting XML orchestrate;Nevada enterprise Belarussian Ruble;2052;2021-01-16T08:19:25;2021-01-15T16:30:19;true
3;Nevada;Regional;architectures red;17869;2021-01-16T00:13:54;2021-01-16T07:04:54;true
4;Tasty Cotton Towels fresh-thinking Designer;array;Chicken violet;55728;2021-01-15T22:14:27;2021-01-15T22:56:10;true
5;Fresh;Bedfordshire visionary;Cheese Front-line;9171;2021-01-16T04:21:28;2021-01-15T14:41:52;true
6;Specialist;Rustic California payment;Product Communications Berkshire;82090;2021-01-15T23:42:30;2021-01-15T15:19:57;false
7;Forks schemas;Liechtenstein;invoice;51091;2021-01-15T23:43:22;2021-01-15T14:11:02;true
8;6th generation Avon Research;Central;feed driver;61638;2021-01-16T04:01:05;2021-01-16T10:09:40;false
9;Computers National pixel;Lithuania;Quality salmon Pitcairn Islands;91308;2021-01-16T10:14:08;2021-01-15T13:58:07;true
10;empower;Corners Marshall Islands Public-key;Cambridgeshire open architecture Garden;26806;2021-01-16T00:33:59;2021-01-15T13:34:46;true
