id;nom;type;created_at;updated_at;deleted;date_debut;date_fin;hashcode;code
1;transitional Intelligent Lake;CHAMPIONNAT;2021-01-16T12:22:46;2021-01-16T03:14:49;true;2021-01-16;2021-01-15;invoice Fantastic Rubber Pizza Democratic People's Republic of Korea;algorithm installation invoice
2;Ball;MATCH_DIRECT;2021-01-16T09:41:19;2021-01-16T11:27:37;false;2021-01-15;2021-01-16;Lights Guarani;Prairie Isle of Man
3;Ergonomic;ALLEZ_RETOUR;2021-01-16T10:33:18;2021-01-16T05:56:52;false;2021-01-15;2021-01-16;Shoes deploy invoice;deposit Assurance fuchsia
4;whiteboard;MATCH_DIRECT;2021-01-16T08:29:57;2021-01-15T18:48:30;false;2021-01-16;2021-01-16;New Zealand Dollar EXE;navigate Optimization Nepal
5;asynchronous;MATCH_DIRECT;2021-01-16T05:17:47;2021-01-15T18:55:41;false;2021-01-15;2021-01-15;Island Avon Optimization;red Home Loan Account
6;holistic Car;CHAMPIONNAT;2021-01-15T16:05:28;2021-01-15T16:48:24;false;2021-01-16;2021-01-15;Refined Wooden Car Practical Gibraltar Pound;Cambridgeshire New York
7;Money Market Account Fantastic;ALLEZ_RETOUR;2021-01-16T06:12:50;2021-01-15T18:50:45;true;2021-01-15;2021-01-16;Applications;portal Cotton navigating
8;Cordoba Oro FTP Credit Card Account;MATCH_DIRECT;2021-01-16T04:24:29;2021-01-16T07:42:52;false;2021-01-15;2021-01-16;Orchestrator directional back-end;Afghani Chicken lavender
9;one-to-one;MATCH_DIRECT;2021-01-15T22:55:54;2021-01-16T11:42:17;true;2021-01-16;2021-01-15;open-source Clothing Generic Steel Mouse;embrace Future-proofed Buckinghamshire
10;Argentine Peso transparent clear-thinking;ALLEZ_RETOUR;2021-01-16T05:00:28;2021-01-15T21:03:56;true;2021-01-15;2021-01-16;human-resource;input navigating
