id;nombre_de_point;goal_difference;journee;code;hashcode;created_at;update_at;deleted;victoire;match_null;defaite;buts_pour;buts_contre
1;92906;81936;32151;Buckinghamshire;clicks-and-mortar purple stable;2021-01-15T21:31:45;2021-01-15T19:16:46;false;202;27249;79393;69755;65999
2;62423;40691;98967;JSON application Designer;Pants deposit;2021-01-15T14:59:03;2021-01-15T14:25:07;false;71798;54171;15811;12182;90554
3;50735;36641;77630;impactful French Guiana;Ethiopian Birr Car;2021-01-15T18:33:02;2021-01-16T05:49:50;false;68148;45768;6319;83710;87972
4;7702;84164;62666;Kyat Dalasi leading edge;Health;2021-01-16T00:14:16;2021-01-16T12:34:23;false;36835;67666;31573;65938;76894
5;98626;72987;27058;communities;Sleek Fresh Salad Synergized Pizza;2021-01-16T04:48:21;2021-01-16T07:58:27;true;64470;9730;17707;97072;37438
6;56042;93601;1871;JSON motivating Tasty Cotton Tuna;Generic Steel Towels;2021-01-16T03:24:42;2021-01-15T17:44:08;false;68108;34185;17468;8330;7832
7;5052;67922;13888;Papua New Guinea Exclusive;knowledge base Cliffs;2021-01-15T20:00:57;2021-01-15T16:47:22;true;7919;68905;87948;95390;13924
8;87842;57037;30766;Organized;Village Samoa;2021-01-16T01:33:13;2021-01-16T09:57:51;true;77867;99678;12561;72163;44116
9;67609;92962;26746;Berkshire withdrawal North Carolina;synthesizing Innovative Plastic;2021-01-16T02:00:37;2021-01-16T08:25:32;true;99606;57042;97593;87863;18192
10;40456;55181;86182;fuchsia;Metal strategic;2021-01-15T22:27:49;2021-01-16T05:08:35;true;83588;80252;90153;28727;74531
