id;nom;adresse;code;hashcode;created_at;updated_at;deleted;user_id;pays_id
1;brand purple Arizona;Personal Loan Account;Movies Islands Multi-layered;Buckinghamshire;2021-01-16T03:03:45;2021-01-16T03:40:24;true;32179;1
2;Specialist Bacon connect;paradigms Rhode Island;Berkshire Syrian Arab Republic Garden;Granite Sleek Chair;2021-01-15T16:01:52;2021-01-15T23:01:12;false;97218;2
3;Uganda Shilling;COM transition;calculating overriding;Coves Awesome Fresh Ball partnerships;2021-01-15T19:34:24;2021-01-15T21:11:33;false;76942;3
4;capacitor Minnesota;Chair port synthesizing;Argentine Peso transmitting;matrix;2021-01-16T12:06:33;2021-01-16T11:54:02;true;72602;4
5;Customizable New York Ports;Developer Savings Account;Gibraltar Metal;circuit;2021-01-16T01:16:22;2021-01-15T16:27:51;false;33843;5
6;Director Generic Rubber Shoes Fiji Dollar;fuchsia;viral;Salad Savings Account;2021-01-15T19:20:34;2021-01-16T01:54:29;true;33084;6
7;Bacon intangible SDD;Nevada;Assimilated full-range;Investment Account Highway;2021-01-16T10:06:00;2021-01-15T15:43:31;true;70189;7
8;SQL Afghani Australia;Buckinghamshire clicks-and-mortar violet;Implemented navigating wireless;Corporate silver Concrete;2021-01-15T13:37:36;2021-01-15T19:57:07;true;1495;8
9;Branding;olive black microchip;bus Indian Rupee Ngultrum SMTP;Borders Forint neural;2021-01-16T09:29:54;2021-01-16T06:19:13;false;77194;9
10;Mouse Home Loan Account;blue;payment ability Bolivar Fuerte;deposit Bike;2021-01-15T15:32:39;2021-01-16T01:34:43;true;83113;10
