id;tag;libelle;type;valeur;fonction_de_choix;created_at;updated_at;reference_tag;reference_id;description
1;synthesizing Algeria;Rustic Usability;SELECT;Lao People's Democratic Republic;Home Loan Account networks Electronics;2021-01-15T23:58:59;2021-01-16T01:49:06;Rwanda Franc optical workforce;50269;Engineer Buckinghamshire
2;Gibraltar cyan;Kids Program;SWITCH;input;navigating copy;2021-01-16T04:25:53;2021-01-15T12:58:52;payment New Leu;23255;Pizza orchestration withdrawal
3;Lights XSS invoice;Table innovate;SELECT;Fish Rhode Island;Synergized interface synergize;2021-01-15T20:28:02;2021-01-15T23:32:32;Corporate;9346;infrastructure
4;asymmetric New Hampshire index;Soap Programmable transmitting;VALEUR;web-readiness;Programmable;2021-01-16T11:10:56;2021-01-16T03:15:08;gold;99253;back-end
5;Tuna;web-enabled;SELECT;Bedfordshire;Toys 1080p Electronics;2021-01-16T00:25:34;2021-01-16T05:22:53;copying;38822;deposit Unbranded Granite Gloves
6;sensor Drive;Generic overriding Consultant;SWITCH;Jordanian Dinar Associate;program Mouse;2021-01-16T03:11:43;2021-01-16T10:15:50;channels Strategist Agent;57237;Specialist synthesizing
7;USB facilitate;calculating Cotton Concrete;SELECT;Cocos (Keeling) Islands Customer;Borders Investor;2021-01-16T01:26:30;2021-01-15T23:55:41;bluetooth Unbranded Fresh Table rich;26846;Gloves
8;infomediaries virtual;copying;VALEUR;Ergonomic;SAS;2021-01-16T09:54:05;2021-01-16T11:55:33;Metal;47523;Small South Dakota alarm
9;Panama Palestinian Territory;tan;VALEUR;Mouse;optimizing deposit;2021-01-16T00:24:55;2021-01-15T23:58:13;Wooden Credit Card Account Dynamic;21583;Health
10;Accounts;Virginia Hungary;SWITCH;intuitive Home;Points Algeria Belarussian Ruble;2021-01-16T11:14:39;2021-01-16T01:34:39;Awesome Steel Salad Program French Guiana;92791;e-services Virginia Quality
