id;code;hashcode;created_at;updated_at;deleted
1;Manager Extension;Somali Shilling;2021-01-16T02:01:32;2021-01-16T02:00:54;false
2;initiatives 24/365 deposit;Kentucky calculating Officer;2021-01-15T15:58:36;2021-01-15T13:46:42;true
3;California;Junction white;2021-01-15T21:38:50;2021-01-16T04:48:12;true
4;Kentucky Sausages back-end;North Dakota HTTP cross-platform;2021-01-16T10:15:55;2021-01-16T05:50:00;false
5;Frozen;Chair;2021-01-16T08:02:32;2021-01-16T07:09:30;true
6;generate Wooden SMS;National cyan;2021-01-16T04:39:02;2021-01-16T04:16:46;true
7;Intelligent Plastic Hat orchestration schemas;Samoa enterprise bandwidth-monitored;2021-01-16T02:37:34;2021-01-16T01:59:22;false
8;Handcrafted Ukraine Specialist;Greenland COM;2021-01-15T16:22:22;2021-01-15T18:46:45;true
9;Bedfordshire Baby SCSI;Handmade Wooden Pants Buckinghamshire Isle;2021-01-15T18:08:44;2021-01-16T08:11:13;true
10;syndicate Handmade hack;payment mint green;2021-01-16T11:57:19;2021-01-16T09:38:55;false
