id;code;hashcode;created_at;updated_at;deleted
1;exuding;Fiji Dollar Regional;2021-01-16T04:39:31;2021-01-16T06:54:49;true
2;Legacy JBOD Optimized;hard drive;2021-01-16T12:23:32;2021-01-16T07:52:34;false
3;Refined Steel Salad Money Market Account Home Loan Account;Licensed Frozen Car Bedfordshire local area network;2021-01-15T19:23:36;2021-01-16T05:32:47;true
4;Generic;optical connecting;2021-01-16T09:20:25;2021-01-16T10:59:28;true
5;Avon;Utah Spain;2021-01-16T04:01:31;2021-01-16T06:48:50;false
6;Ameliorated GB Health;Home Cambridgeshire;2021-01-16T03:09:16;2021-01-16T12:05:45;false
7;Sports Metal El Salvador;internet solution;2021-01-16T05:09:01;2021-01-16T05:32:00;false
8;Investment Account Sleek;purple;2021-01-16T10:02:38;2021-01-15T21:49:40;false
9;deposit Executive;Face to face;2021-01-16T11:23:00;2021-01-16T05:17:09;true
10;firewall programming Parkway;wireless California Jersey;2021-01-15T14:56:02;2021-01-16T10:54:21;true
