{
  "name": "But",
  "fields": [
    {
      "fieldName": "cause",
      "fieldType": "Cause",
      "fieldValues": "PENALTY,COUP_FRANC,CORNER,COURS_JEU"
    },
    {
      "fieldName": "equipe",
      "fieldType": "Equipe",
      "fieldValues": "LOCAL,VISITEUR"
    },
    {
      "fieldName": "code",
      "fieldType": "String"
    },
    {
      "fieldName": "hashcode",
      "fieldType": "String"
    },
    {
      "fieldName": "createdAt",
      "fieldType": "ZonedDateTime"
    },
    {
      "fieldName": "updatedAt",
      "fieldType": "ZonedDateTime"
    },
    {
      "fieldName": "deleted",
      "fieldType": "Boolean"
    },
    {
      "fieldName": "instant",
      "fieldType": "Integer"
    },
    {
      "fieldName": "annule",
      "fieldType": "Boolean"
    }
  ],
  "relationships": [
    {
      "relationshipType": "many-to-one",
      "otherEntityName": "joueur",
      "otherEntityRelationshipName": "but",
      "relationshipName": "joueur",
      "otherEntityField": "id"
    },
    {
      "relationshipType": "many-to-one",
      "otherEntityName": "match",
      "otherEntityRelationshipName": "buts",
      "relationshipName": "match",
      "otherEntityField": "id"
    }
  ],
  "changelogDate": "20210116123040",
  "entityTableName": "but",
  "dto": "mapstruct",
  "pagination": "pagination",
  "service": "serviceImpl",
  "jpaMetamodelFiltering": false,
  "fluentMethods": true,
  "readOnly": false,
  "embedded": false,
  "clientRootFolder": "navetfootCore",
  "applications": "*",
  "microserviceName": "navetfootCore"
}
