{
  "name": "Carton",
  "fields": [
    {
      "fieldName": "couleur",
      "fieldType": "Couleur",
      "fieldValues": "JAUNE,ROUGE"
    },
    {
      "fieldName": "equipe",
      "fieldType": "Equipe",
      "fieldValues": "LOCAL,VISITEUR"
    },
    {
      "fieldName": "code",
      "fieldType": "String"
    },
    {
      "fieldName": "hashcode",
      "fieldType": "String"
    },
    {
      "fieldName": "createdAt",
      "fieldType": "ZonedDateTime"
    },
    {
      "fieldName": "updatedAt",
      "fieldType": "ZonedDateTime"
    },
    {
      "fieldName": "deleted",
      "fieldType": "Boolean"
    },
    {
      "fieldName": "instant",
      "fieldType": "Integer"
    }
  ],
  "relationships": [
    {
      "relationshipType": "many-to-one",
      "otherEntityName": "joueur",
      "otherEntityRelationshipName": "carton",
      "relationshipName": "joueur",
      "otherEntityField": "id"
    },
    {
      "relationshipType": "many-to-one",
      "otherEntityName": "match",
      "otherEntityRelationshipName": "cartons",
      "relationshipName": "match",
      "otherEntityField": "id"
    }
  ],
  "changelogDate": "20210116123140",
  "entityTableName": "carton",
  "dto": "mapstruct",
  "pagination": "pagination",
  "service": "serviceImpl",
  "jpaMetamodelFiltering": false,
  "fluentMethods": true,
  "readOnly": false,
  "embedded": false,
  "clientRootFolder": "navetfootCore",
  "applications": "*",
  "microserviceName": "navetfootCore"
}
