{
  "name": "Category",
  "fields": [
    {
      "fieldName": "hashcode",
      "fieldType": "String",
      "fieldValidateRules": ["required"]
    },
    {
      "fieldName": "code",
      "fieldType": "String",
      "fieldValidateRules": ["required"]
    },
    {
      "fieldName": "libelle",
      "fieldType": "String",
      "fieldValidateRules": ["required"]
    },
    {
      "fieldName": "maxAge",
      "fieldType": "Integer"
    },
    {
      "fieldName": "createdAt",
      "fieldType": "ZonedDateTime"
    },
    {
      "fieldName": "updatedAt",
      "fieldType": "ZonedDateTime"
    },
    {
      "fieldName": "deleted",
      "fieldType": "Boolean"
    }
  ],
  "relationships": [],
  "changelogDate": "20210116125240",
  "entityTableName": "category",
  "dto": "mapstruct",
  "pagination": "pagination",
  "service": "serviceImpl",
  "jpaMetamodelFiltering": false,
  "fluentMethods": true,
  "readOnly": false,
  "embedded": false,
  "clientRootFolder": "navetfootCore",
  "applications": "*",
  "microserviceName": "navetfootCore"
}
