{
  "name": "CompetitionSaisonCategory",
  "fields": [
    {
      "fieldName": "hashcode",
      "fieldType": "String"
    },
    {
      "fieldName": "code",
      "fieldType": "String"
    },
    {
      "fieldName": "createdAt",
      "fieldType": "ZonedDateTime"
    },
    {
      "fieldName": "updatedAt",
      "fieldType": "ZonedDateTime"
    },
    {
      "fieldName": "deleted",
      "fieldType": "Boolean"
    }
  ],
  "relationships": [
    {
      "relationshipType": "many-to-one",
      "otherEntityName": "competitionSaison",
      "otherEntityRelationshipName": "competitionSaisonCategory",
      "relationshipName": "competitionSaison",
      "otherEntityField": "id"
    },
    {
      "relationshipType": "many-to-one",
      "otherEntityName": "category",
      "otherEntityRelationshipName": "competitionSaisonCategory",
      "relationshipName": "category",
      "otherEntityField": "id"
    }
  ],
  "changelogDate": "20210116125340",
  "entityTableName": "competition_saison_category",
  "dto": "mapstruct",
  "pagination": "pagination",
  "service": "serviceImpl",
  "jpaMetamodelFiltering": false,
  "fluentMethods": true,
  "readOnly": false,
  "embedded": false,
  "clientRootFolder": "navetfootCore",
  "applications": "*",
  "microserviceName": "navetfootCore"
}
