{
  "name": "Departement",
  "fields": [
    {
      "fieldName": "nom",
      "fieldType": "String",
      "fieldValidateRules": ["required"]
    }
  ],
  "relationships": [
    {
      "relationshipType": "many-to-one",
      "otherEntityName": "region",
      "otherEntityRelationshipName": "departement",
      "relationshipName": "region",
      "otherEntityField": "id"
    }
  ],
  "changelogDate": "20210116124040",
  "entityTableName": "departement",
  "dto": "mapstruct",
  "pagination": "pagination",
  "service": "serviceImpl",
  "jpaMetamodelFiltering": false,
  "fluentMethods": true,
  "readOnly": false,
  "embedded": false,
  "clientRootFolder": "navetfootCore",
  "applications": "*",
  "microserviceName": "navetfootCore"
}
