{
  "name": "Joueur",
  "fields": [
    {
      "fieldName": "prenom",
      "fieldType": "String",
      "fieldValidateRules": ["required"]
    },
    {
      "fieldName": "nom",
      "fieldType": "String",
      "fieldValidateRules": ["required"]
    },
    {
      "fieldName": "identifiant",
      "fieldType": "String",
      "fieldValidateRules": ["required"]
    },
    {
      "fieldName": "lieuDeNaissance",
      "fieldType": "String"
    },
    {
      "fieldName": "dateDeNaissance",
      "fieldType": "String"
    },
    {
      "fieldName": "hashcode",
      "fieldType": "String"
    },
    {
      "fieldName": "createdAt",
      "fieldType": "ZonedDateTime"
    },
    {
      "fieldName": "updatedAt",
      "fieldType": "ZonedDateTime"
    },
    {
      "fieldName": "deleted",
      "fieldType": "Boolean"
    },
    {
      "fieldName": "code",
      "fieldType": "String",
      "fieldValidateRules": ["required"]
    },
    {
      "fieldName": "imageUrl",
      "fieldType": "String"
    },
    {
      "fieldName": "userId",
      "fieldType": "Long"
    }
  ],
  "relationships": [],
  "changelogDate": "20210116122940",
  "entityTableName": "joueur",
  "dto": "mapstruct",
  "pagination": "pagination",
  "service": "serviceImpl",
  "jpaMetamodelFiltering": false,
  "fluentMethods": true,
  "readOnly": false,
  "embedded": false,
  "clientRootFolder": "navetfootCore",
  "applications": "*",
  "microserviceName": "navetfootCore"
}
