{
  "name": "Match",
  "fields": [
    {
      "fieldName": "coupDEnvoi",
      "fieldType": "String"
    },
    {
      "fieldName": "hashcode",
      "fieldType": "String"
    },
    {
      "fieldName": "createdAt",
      "fieldType": "ZonedDateTime"
    },
    {
      "fieldName": "updatedAt",
      "fieldType": "ZonedDateTime"
    },
    {
      "fieldName": "deleted",
      "fieldType": "Boolean"
    },
    {
      "fieldName": "dateMatch",
      "fieldType": "LocalDate"
    },
    {
      "fieldName": "etatMatch",
      "fieldType": "EtatMatch",
      "fieldValues": "PROGRAMME,EN_COURS,RESERVE,TERMINE,ANNULE"
    },
    {
      "fieldName": "code",
      "fieldType": "String",
      "fieldValidateRules": ["required"]
    },
    {
      "fieldName": "journee",
      "fieldType": "Integer"
    },
    {
      "fieldName": "chrono",
      "fieldType": "String"
    }
  ],
  "relationships": [
    {
      "relationshipType": "one-to-many",
      "otherEntityName": "but",
      "otherEntityRelationshipName": "match",
      "relationshipName": "buts"
    },
    {
      "relationshipType": "one-to-many",
      "otherEntityName": "carton",
      "otherEntityRelationshipName": "match",
      "relationshipName": "cartons"
    },
    {
      "relationshipType": "one-to-many",
      "otherEntityName": "coupFranc",
      "otherEntityRelationshipName": "match",
      "relationshipName": "coupFrancs"
    },
    {
      "relationshipType": "one-to-many",
      "otherEntityName": "penalty",
      "otherEntityRelationshipName": "match",
      "relationshipName": "penalties"
    },
    {
      "relationshipType": "one-to-many",
      "otherEntityName": "corner",
      "otherEntityRelationshipName": "match",
      "relationshipName": "corners"
    },
    {
      "relationshipType": "one-to-many",
      "otherEntityName": "delegueMatch",
      "otherEntityRelationshipName": "match",
      "relationshipName": "delegueMatch"
    },
    {
      "relationshipType": "many-to-one",
      "otherEntityName": "association",
      "otherEntityRelationshipName": "match",
      "relationshipName": "visiteur",
      "otherEntityField": "id"
    },
    {
      "relationshipType": "many-to-one",
      "otherEntityName": "association",
      "otherEntityRelationshipName": "match",
      "relationshipName": "local",
      "otherEntityField": "id"
    },
    {
      "relationshipType": "one-to-one",
      "otherEntityName": "tirAuBut",
      "otherEntityRelationshipName": "match",
      "relationshipName": "tirAuBut",
      "ownerSide": false
    },
    {
      "relationshipType": "many-to-one",
      "otherEntityName": "etapeCompetition",
      "otherEntityRelationshipName": "match",
      "relationshipName": "etapeCompetition",
      "otherEntityField": "nom"
    }
  ],
  "changelogDate": "20210116122640",
  "entityTableName": "match",
  "dto": "mapstruct",
  "pagination": "pagination",
  "service": "serviceImpl",
  "jpaMetamodelFiltering": false,
  "fluentMethods": true,
  "readOnly": false,
  "embedded": false,
  "clientRootFolder": "navetfootCore",
  "applications": "*",
  "microserviceName": "navetfootCore"
}
