{
  "name": "Tir",
  "fields": [
    {
      "fieldName": "code",
      "fieldType": "String",
      "fieldValidateRules": ["required"]
    },
    {
      "fieldName": "hashcode",
      "fieldType": "String",
      "fieldValidateRules": ["required"]
    },
    {
      "fieldName": "instant",
      "fieldType": "Integer"
    },
    {
      "fieldName": "deleted",
      "fieldType": "Boolean"
    },
    {
      "fieldName": "cadre",
      "fieldType": "Boolean"
    },
    {
      "fieldName": "createdAt",
      "fieldType": "ZonedDateTime"
    },
    {
      "fieldName": "updatedAt",
      "fieldType": "ZonedDateTime"
    },
    {
      "fieldName": "equipe",
      "fieldType": "Equipe",
      "fieldValues": "LOCAL,VISITEUR"
    }
  ],
  "relationships": [
    {
      "relationshipType": "many-to-one",
      "otherEntityName": "match",
      "otherEntityRelationshipName": "tir",
      "relationshipValidateRules": "required",
      "relationshipName": "match",
      "otherEntityField": "id"
    },
    {
      "relationshipType": "many-to-one",
      "otherEntityName": "joueur",
      "otherEntityRelationshipName": "tir",
      "relationshipValidateRules": "required",
      "relationshipName": "joueur",
      "otherEntityField": "id"
    }
  ],
  "changelogDate": "20210116125040",
  "entityTableName": "tir",
  "dto": "mapstruct",
  "pagination": "no",
  "service": "serviceImpl",
  "jpaMetamodelFiltering": false,
  "fluentMethods": true,
  "readOnly": false,
  "embedded": false,
  "clientRootFolder": "navetfootCore",
  "applications": "*",
  "microserviceName": "navetfootCore"
}
